<?xml version="1.0" encoding="UTF-8"?>
<!DOCTYPE svg PUBLIC "-//W3C//DTD SVG 1.1//EN" "http://www.w3.org/Graphics/SVG/1.1/DTD/svg11.dtd">
<svg xmlns="http://www.w3.org/2000/svg" version="1.1" width="512px" height="512px" style="shape-rendering:geometricPrecision; text-rendering:geometricPrecision; image-rendering:optimizeQuality; fill-rule:evenodd; clip-rule:evenodd" xmlns:xlink="http://www.w3.org/1999/xlink">
<g><path style="opacity:0.979" fill="#D3D3D3" d="M 260.5,20.5 C 301.276,20.1266 325.776,39.7933 334,79.5C 334.667,84.5 334.667,89.5 334,94.5C 330.348,126.869 326.515,159.203 322.5,191.5C 353.502,191.333 384.502,191.5 415.5,192C 454.903,199.403 479.403,222.57 489,261.5C 492.926,283.356 489.592,304.023 479,323.5C 451.083,367.665 423.416,411.999 396,456.5C 384.269,475.21 367.436,486.377 345.5,490C 301.167,490.667 256.833,490.667 212.5,490C 189.69,487.842 168.856,480.342 150,467.5C 149.463,478.776 143.963,486.276 133.5,490C 101.167,490.667 68.8333,490.667 36.5,490C 29.8193,487.987 24.986,483.82 22,477.5C 20.341,387.557 20.0077,297.557 21,207.5C 22.7778,199.425 27.6111,194.258 35.5,192C 68.1667,191.333 100.833,191.333 133.5,192C 136.306,193.089 138.973,194.089 141.5,195C 164.544,171.924 181.044,144.757 191,113.5C 195.511,97.1218 200.178,80.7885 205,64.5C 215.418,39.5771 233.918,24.9104 260.5,20.5 Z M 267.5,63.5 C 284.725,66.5759 292.225,76.9092 290,94.5C 285.377,133.654 280.877,172.821 276.5,212C 276.428,223.262 281.761,230.595 292.5,234C 330.833,234.333 369.167,234.667 407.5,235C 436.173,241.35 449.006,259.184 446,288.5C 444.726,292.99 443.059,297.323 441,301.5C 412.229,347.934 383.062,394.1 353.5,440C 350.066,442.435 346.4,444.435 342.5,446C 321.864,447.124 301.198,447.624 280.5,447.5C 257.814,447.588 235.148,447.088 212.5,446C 201.209,444.125 190.543,440.459 180.5,435C 170.247,428.291 160.08,421.457 150,414.5C 149.167,357.83 149.333,301.164 150.5,244.5C 185.63,218.194 211.13,184.527 227,143.5C 234.31,120.926 241.31,98.2596 248,75.5C 252.645,68.3314 259.145,64.3314 267.5,63.5 Z M 63.5,234.5 C 77.5,234.5 91.5,234.5 105.5,234.5C 105.5,305.5 105.5,376.5 105.5,447.5C 91.5,447.5 77.5,447.5 63.5,447.5C 63.5,376.5 63.5,305.5 63.5,234.5 Z"/></g>
</svg>
