<?xml version="1.0" encoding="UTF-8"?>
<!DOCTYPE svg PUBLIC "-//W3C//DTD SVG 1.1//EN" "http://www.w3.org/Graphics/SVG/1.1/DTD/svg11.dtd">
<svg xmlns="http://www.w3.org/2000/svg" version="1.1" width="64px" height="64px" style="shape-rendering:geometricPrecision; text-rendering:geometricPrecision; image-rendering:optimizeQuality; fill-rule:evenodd; clip-rule:evenodd" xmlns:xlink="http://www.w3.org/1999/xlink">
<g><path style="opacity:0.887" fill="#aeaeae" d="M 28.5,-0.5 C 30.5,-0.5 32.5,-0.5 34.5,-0.5C 44.5,8.83333 54.1667,18.5 63.5,28.5C 63.5,30.5 63.5,32.5 63.5,34.5C 54.1667,44.5 44.5,54.1667 34.5,63.5C 32.5,63.5 30.5,63.5 28.5,63.5C 25.8562,61.484 25.0228,58.8173 26,55.5C 34.0145,47.6524 41.8479,39.6524 49.5,31.5C 41.8479,23.3476 34.0145,15.3476 26,7.5C 25.0228,4.18266 25.8562,1.51599 28.5,-0.5 Z"/></g>
<g><path style="opacity:0.89" fill="#aeaeae" d="M -0.5,55.5 C -0.5,53.1667 -0.5,50.8333 -0.5,48.5C 5.99578,42.8373 11.9958,36.6706 17.5,30C 11.2698,23.9381 5.26977,17.7714 -0.5,11.5C -0.5,9.16667 -0.5,6.83333 -0.5,4.5C 2.02127,1.28786 5.02127,0.787859 8.5,3C 16.3645,10.5302 23.8645,18.3635 31,26.5C 31.7901,29.634 31.4568,32.634 30,35.5C 22.8017,42.3638 15.9684,49.5305 9.5,57C 5.6537,59.2608 2.32037,58.7608 -0.5,55.5 Z"/></g>
</svg>
