<?xml version="1.0" encoding="UTF-8"?>
<!DOCTYPE svg PUBLIC "-//W3C//DTD SVG 1.1//EN" "http://www.w3.org/Graphics/SVG/1.1/DTD/svg11.dtd">
<svg xmlns="http://www.w3.org/2000/svg" version="1.1" width="64px" height="64px" style="shape-rendering:geometricPrecision; text-rendering:geometricPrecision; image-rendering:optimizeQuality; fill-rule:evenodd; clip-rule:evenodd" xmlns:xlink="http://www.w3.org/1999/xlink">
<g><path style="opacity:0.889" fill="#aeaeae" d="M 28.5,-0.5 C 30.5,-0.5 32.5,-0.5 34.5,-0.5C 37.1438,1.51599 37.9772,4.18266 37,7.5C 28.9855,15.3476 21.1521,23.3476 13.5,31.5C 21.1521,39.6524 28.9855,47.6524 37,55.5C 37.9772,58.8173 37.1438,61.484 34.5,63.5C 32.5,63.5 30.5,63.5 28.5,63.5C 18.5,54.1667 8.83333,44.5 -0.5,34.5C -0.5,32.5 -0.5,30.5 -0.5,28.5C 8.83333,18.5 18.5,8.83333 28.5,-0.5 Z"/></g>
<g><path style="opacity:0.881" fill="#aeaeae" d="M 63.5,6.5 C 63.5,8.83333 63.5,11.1667 63.5,13.5C 57.3249,18.8418 51.6582,24.6751 46.5,31C 52.0198,37.351 57.6865,43.5177 63.5,49.5C 63.5,51.8333 63.5,54.1667 63.5,56.5C 60.2829,58.8425 56.9496,59.0092 53.5,57C 47,49.8333 40.5,42.6667 34,35.5C 31.81,33.2172 31.1433,30.5505 32,27.5C 39.1667,20.3333 46.3333,13.1667 53.5,6C 56.9496,3.99085 60.2829,4.15751 63.5,6.5 Z"/></g>
</svg>
